{
  "development": {
    "username": "ppc",
    "password": "qwe123",
    "database": "ppc",
    "host": "127.0.0.1",
    "dialect": "postgres"
  },
  "test": {
    "username": "ppc",
    "password": null,
    "database": "ppc_test",
    "host": "127.0.0.1",
    "dialect": "postgres"
  },
  "production": {
    "username": "ppc",
    "password": null,
    "database": "ppc_production",
    "host": "127.0.0.1",
    "dialect": "postgres"
  }
}
